…
  group_by(city_state) %>% 
  summarize(
    unsolved = sum(resolution == "unsolved"),
    n = n()
  ) %>% 
  mutate(
    test_results = map2(unsolved, n, prop.test),
    tidy_results = map(test_results, broom::tidy)
  ) %>% 
  select(city_state, tidy_results) %>% 
  unnest(tidy_results) %>% 
  select(city_state, estimate, starts_with("conf"))
```

    ## # A tibble: 50 × 4
    ##    city_state    estimate conf.low conf.high
    ##    <chr>            <dbl>    <dbl>     <dbl>
    ##  1 AlbuquerqueNM    0.386    0.337     0.438
    ##  2 AtlantaGA        0.383    0.353     0.415
    ##  3 BaltimoreMD      0.646    0.628     0.663
    ##  4 Baton RougeLA    0.462    0.414     0.511
    ##  5 BirminghamAL     0.434    0.399     0.469
    ##  6 BostonMA         0.505    0.465     0.545
    ##  7 BuffaloNY        0.612    0.569     0.654
    ##  8 CharlotteNC      0.300    0.266     0.336
    ##  9 ChicagoIL        0.736    0.724     0.747
    ## 10 CincinnatiOH     0.445    0.408     0.483
    ## # … with 40 more rows
…
  bind_rows() %>% ## stack each study into one data frame
  pivot_longer( ## make a readable table
    week_1:week_8,
    names_to = "week",
    values_to = "obs_value"
  ) %>% 
  mutate( ## tidy week and study_id variable
   week = str_remove(week, "week_"),
   week = as.numeric(week),
   study_id = as.character(study_id)
  ) %>% 
  print()
```

    ## # A tibble: 160 × 4
    ##    arm   study_id  week obs_value
    ##    <chr> <chr>    <dbl>     <dbl>
    ##  1 Con   1            1      0.2 
    ##  2 Con   1            2     -1.31
    ##  3 Con   1            3      0.66
    ##  4 Con   1            4      1.96
    ##  5 Con   1            5      0.23
    ##  6 Con   1            6      1.09
    ##  7 Con   1            7      0.05
    ##  8 Con   1            8      1.94
    ##  9 Con   2            1      1.13
    ## 10 Con   2            2     -0.88
    ## # … with 150 more rows
…
  if (is.numeric(x)) { ## if the value is NA, replace by mean of x
    x = replace_na(x, mean(x, na.rm = TRUE))
  } 
  
  else if (is.character(x)) { ## if the species is NA replace by virginica
    x = replace_na(x, "virginica")
  }
}

iris = map_df(iris_with_missing, clean_data) %>% 
  as_tibble() %>% print()
```

    ## # A tibble: 150 × 5
    ##    Sepal.Length Sepal.Width Petal.Length Petal.Width Species
    ##           <dbl>       <dbl>        <dbl>       <dbl> <chr>  
    ##  1         5.1          3.5         1.4         0.2  setosa 
    ##  2         4.9          3           1.4         0.2  setosa 
    ##  3         4.7          3.2         1.3         0.2  setosa 
    ##  4         4.6          3.1         1.5         1.19 setosa 
    ##  5         5            3.6         1.4         0.2  setosa 
    ##  6         5.4          3.9         1.7         0.4  setosa 
    ##  7         5.82         3.4         1.4         0.3  setosa 
    ##  8         5            3.4         1.5         0.2  setosa 
    ##  9         4.4          2.9         1.4         0.2  setosa 
    ## 10         4.9          3.1         3.77        0.1  setosa 
    ## # … with 140 more rows
…
